<?xml version="1.0" encoding="UTF-8" standalone="no"?>
<svg
   xmlns:dc="http://purl.org/dc/elements/1.1/"
   xmlns:cc="http://creativecommons.org/ns#"
   xmlns:rdf="http://www.w3.org/1999/02/22-rdf-syntax-ns#"
   xmlns:svg="http://www.w3.org/2000/svg"
   xmlns="http://www.w3.org/2000/svg"
   xmlns:sodipodi="http://sodipodi.sourceforge.net/DTD/sodipodi-0.dtd"
   xmlns:inkscape="http://www.inkscape.org/namespaces/inkscape"
   width="32"
   height="32"
   fill="#000000"
   viewBox="0 0 256 256"
   version="1.1"
   id="svg878"
   sodipodi:docname="arrow-line-down-b.svg"
   inkscape:version="0.92.5 (2060ec1f9f, 2020-04-08)">
  <metadata
     id="metadata884">
    <rdf:RDF>
      <cc:Work
         rdf:about="">
        <dc:format>image/svg+xml</dc:format>
        <dc:type
           rdf:resource="http://purl.org/dc/dcmitype/StillImage" />
        <dc:title />
      </cc:Work>
    </rdf:RDF>
  </metadata>
  <defs
     id="defs882" />
  <sodipodi:namedview
     pagecolor="#ffffff"
     bordercolor="#666666"
     borderopacity="1"
     objecttolerance="10"
     gridtolerance="10"
     guidetolerance="10"
     inkscape:pageopacity="0"
     inkscape:pageshadow="2"
     inkscape:window-width="1920"
     inkscape:window-height="1068"
     id="namedview880"
     showgrid="false"
     inkscape:zoom="20.85965"
     inkscape:cx="5.8927736"
     inkscape:cy="15.070147"
     inkscape:window-x="1920"
     inkscape:window-y="27"
     inkscape:window-maximized="1"
     inkscape:current-layer="svg878"
     showguides="true"
     inkscape:guide-bbox="true" />
  <path
     d="M50.34,117.66a8,8,0,0,1,11.32-11.32L120,164.69V32a8,8,0,0,1,16,0V164.69l58.34-58.35a8,8,0,0,1,11.32,11.32l-72,72a8,8,0,0,1-11.32,0ZM216,208H40a8,8,0,0,0,0,16H216a8,8,0,0,0,0-16Z"
     id="path876"
     style="fill:#3daee8;fill-opacity:1" />
  <path
     style="stroke:none;stroke-width:0.04793944;fill:#3daee8;fill-opacity:1"
     d="M 15.66433,23.921567 C 15.531466,23.884424 14.530908,22.909954 10.857238,19.23981 7.7193837,16.104968 6.1872796,14.541879 6.1232177,14.41005 5.88705,13.924056 6.1432972,13.279144 6.6490129,13.086752 c 0.2350695,-0.08943 0.6143186,-0.05588 0.8315877,0.07356 0.110997,0.06613 1.8412884,1.76113 3.8450924,3.76667 2.003804,2.005541 3.659512,3.646438 3.679352,3.646438 0.01984,0 0.03643,-3.79141 0.03686,-8.425357 l 7.91e-4,-8.4253568 0.107482,-0.1897639 c 0.383141,-0.6764504 1.363944,-0.6615237 1.714742,0.026096 0.09202,0.1803776 0.09377,0.3413034 0.09377,8.5990997 0,4.628405 0.01623,8.415282 0.03607,8.415282 0.01984,0 1.675549,-1.640897 3.679353,-3.646438 2.003803,-2.00554 3.734094,-3.700542 3.845092,-3.76667 0.364823,-0.217348 0.901557,-0.135715 1.198127,0.182226 0.256544,0.275029 0.324148,0.728192 0.159255,1.067513 -0.06407,0.131857 -1.595509,1.694036 -4.73402,4.82906 -4.011385,4.00693 -4.665258,4.641144 -4.831062,4.685814 -0.228046,0.06144 -0.418945,0.06045 -0.647183,-0.0034 z"
     id="path2024"
     inkscape:connector-curvature="0"
     transform="scale(8)" />
  <path
     style="fill:#3daee8;stroke:none;stroke-width:0.04793944;fill-opacity:1"
     d="m 15.630773,23.901585 c -0.213888,-0.09151 -9.3628376,-9.2205 -9.4951989,-9.474489 -0.1098263,-0.210747 -0.1222736,-0.595211 -0.026497,-0.81842 0.1737284,-0.404877 0.659388,-0.645958 1.1137466,-0.552863 0.228856,0.04689 0.3207635,0.134378 3.9739623,3.782804 2.056829,2.054141 3.755683,3.734802 3.775231,3.734802 0.01955,0 0.03554,-3.738956 0.03554,-8.308792 0,-9.164609 -0.01783,-8.6303197 0.298308,-8.9363 0.456154,-0.4414908 1.13998,-0.3837855 1.499421,0.1265303 l 0.143819,0.2041856 0.01251,8.4571881 c 0.0069,4.651454 0.02851,8.457188 0.04806,8.457188 0.01955,0 1.68581,-1.651754 3.702797,-3.670565 2.1427,-2.144638 3.743982,-3.710519 3.851825,-3.766671 0.631524,-0.328822 1.421397,0.166444 1.421397,0.891244 0,0.383599 -0.05794,0.446175 -4.804761,5.189593 -3.545692,3.543147 -4.615658,4.585806 -4.783128,4.661058 -0.254756,0.114474 -0.534371,0.123042 -0.767031,0.02351 z"
     id="path2036"
     inkscape:connector-curvature="0"
     transform="scale(8)" />
  <path
     style="fill:#3daee8;stroke:none;stroke-width:0.04793944;fill-opacity:1"
     d="M 4.5807313,27.876436 C 4.2365417,27.694984 4.0323519,27.372628 4.0304806,27.00775 c -0.00195,-0.379485 0.1959561,-0.703453 0.536356,-0.878021 0.1733399,-0.08889 0.4639206,-0.09121 11.4263124,-0.09121 12.448169,0 11.389177,-0.02803 11.716906,0.310102 0.337633,0.34835 0.335624,0.94774 -0.0044,1.304941 -0.311738,0.327509 0.654941,0.302726 -11.725806,0.300615 -10.1677368,-0.0017 -11.2692193,-0.0092 -11.3991407,-0.07774 z"
     id="path2038"
     inkscape:connector-curvature="0"
     transform="scale(8)" />
  <path
     style="opacity:1;vector-effect:none;fill:#3daee8;fill-opacity:1;stroke:none;stroke-width:0.00229819;stroke-linecap:butt;stroke-linejoin:miter;stroke-miterlimit:4;stroke-dasharray:none;stroke-dashoffset:0;stroke-opacity:1"
     d="M 4.6581749,27.860043 C 4.4180716,27.803371 4.1741364,27.534276 4.0984826,27.242624 3.9735095,26.76084 4.2361373,26.25144 4.6749272,26.124536 c 0.2700679,-0.07811 21.8667578,-0.08177 22.4601498,-0.0038 0.355417,0.0467 0.4203,0.07042 0.517874,0.189327 0.203306,0.247767 0.269377,0.416328 0.269377,0.687248 0,0.270902 -0.06694,0.441705 -0.268215,0.684412 -0.09711,0.1171 -0.159396,0.138677 -0.517874,0.179409 -0.495942,0.05635 -22.2391676,0.0553 -22.4780641,-0.0011 z"
     id="path2040"
     inkscape:connector-curvature="0"
     transform="scale(8)" />
  <path
     style="opacity:1;vector-effect:none;fill:#3daee8;fill-opacity:1;stroke:none;stroke-width:0.00229819;stroke-linecap:butt;stroke-linejoin:miter;stroke-miterlimit:4;stroke-dasharray:none;stroke-dashoffset:0;stroke-opacity:1"
     d="M 4.6581749,27.860043 C 4.4180716,27.803371 4.1741364,27.534276 4.0984826,27.242624 3.9766575,26.772975 4.2336812,26.25522 4.650514,26.130596 c 0.1157082,-0.03459 3.0221897,-0.05862 9.110621,-0.0753 9.547448,-0.02616 13.485999,0.01124 13.732743,0.130409 0.07805,0.0377 0.207129,0.17413 0.286838,0.303185 0.196333,0.317877 0.202335,0.675463 0.01665,0.992303 -0.176861,0.30179 -0.216133,0.325786 -0.61871,0.378045 -0.432205,0.0561 -22.2828852,0.05689 -22.5204861,8.06e-4 z"
     id="path2042"
     inkscape:connector-curvature="0"
     transform="scale(8)" />
  <path
     style="fill:#3daee8;fill-opacity:1;stroke-width:0.04793944"
     d="M 15.111711,23.39195 C 14.156563,22.474942 7.0199782,15.350367 6.5604374,14.855066 6.0775129,14.334562 6.0095099,14.173921 6.0970767,13.760487 c 0.1087414,-0.513407 0.7622656,-0.853806 1.221211,-0.636089 0.1212692,0.05753 1.4886743,1.378994 3.8998263,3.768807 2.042193,2.024118 3.730261,3.680214 3.751262,3.680214 0.021,0 0.03982,-2.971646 0.04181,-6.603658 0.0039,-7.1045281 0.04383,-10.1543568 0.136014,-10.3908741 0.03083,-0.0791 0.154878,-0.218468 0.275658,-0.3097065 0.183835,-0.1388709 0.268089,-0.1689756 0.517328,-0.184846 0.371131,-0.023632 0.633631,0.095865 0.841774,0.3831988 l 0.143176,0.1976484 v 4.0597286 c 0,5.8639318 0.05706,12.8534588 0.104804,12.8375438 0.02257,-0.0075 1.590515,-1.549112 3.484321,-3.425752 4.178106,-4.140236 4.054891,-4.024829 4.343275,-4.068075 0.158472,-0.02376 0.281235,-0.01031 0.432275,0.04737 0.390136,0.148994 0.57681,0.369303 0.652335,0.769868 0.0548,0.290662 -0.06636,0.501072 -0.662553,1.150547 -0.984656,1.072661 -8.705747,8.726407 -8.889036,8.811503 -0.0997,0.04629 -0.292145,0.08126 -0.447153,0.08126 h -0.272119 z"
     id="path2044"
     inkscape:connector-curvature="0"
     transform="scale(8)" />
</svg>
